﻿{
   "songname" : "Halloween Day",
   "artist" : "Acacia",
   "songpath" : "/Musics/Halloween Day.mp3",
   "albumpath" : "아직 없다",
   "songnum" : 1,
   "level" : 5,
   "BPM" : 105,
   "length" : 101,
   "criteriabeat" : 8,
   "keyinfo" : [
      [ 1, 1, 91010000 ],
      [ 1, 2, 90010001 ],
	  [ 1, 3, 90100100 ],
	  [ 1, 4, 90011000 ]
   ]
}
